tipr: An R package for sensitivity analyses for unmeasured confounding
…
tipr is an R package that allows you to conduct sensitivity analyses for unmeasured confounders. Why might you want to do that? Well, as it turns out, the assumption of “no unmeasured confounders” is integral to any estimation of a causal effect. This assumption is untestable, so often the best we can do is examine how far off our estimates would be should an unmeasured confounder exists, hence sensitivity analyses!

How do I use tipr

You can install the CRAN version by running the following:

install.packages("tipr")

library(tipr)

The package comes with a few example data sets. For example, the dataframe exdata_rr is simulated data that can be used to estimate the effect of a binary exposure on a binary outcome, estimated via a risk ratio. This data set has 4 columns:

exdata_rr

# A tibble: 2,000 × 4
   .unmeasured_confounder measured_confounder exposure outcome
                    <dbl>               <dbl>    <dbl>   <int>
 1                0.716                -0.890        0       0
 2                0.134                -0.249        0       0
 3                0.238                -0.104        0       0
 4                0.0286                0.165        0       0
 5               -0.598                 0.812        0       0
 6                0.00419              -0.563        0       0
 7               -0.960                -0.559        0       0
 8               -1.15                  1.14         0       0
 9               -0.374                -1.23         0       0
10                1.80                  0.495        0       0
# … with 1,990 more rows
…
