Understanding propensity score weighting –
…
dat <- tibble(
  x_1 = X[, 1],
  x_2 = X[, 2],
  treatment = as.numeric(- 0.5 + 0.25 * x_1 + 0.75 * x_2 + rnorm(n, 0, 1) > 0),
  outcome = 2 * treatment + x_1 + x_2 + rnorm(n, 0, 1)
)
dat

# A tibble: 10,000 × 4
      x_1    x_2 treatment outcome
    <dbl>  <dbl>     <dbl>   <dbl>
 1 -0.554  1.57          0   0.832
 2 -0.154  0.949         1   2.68 
 3  0.138  2.42          1   5.12 
 4  0.668  1.36          1   4.27 
 5  3.11   2.76          1   7.87 
 6 -0.151  0.683         0  -0.260
 7  1.01  -0.414         0   0.551
 8 -0.114  0.856         0   1.63 
 9  2.66   1.23          1   6.41 
10  2.96   2.53          1   8.91 
# ℹ 9,990 more rows
…
